id,id_m_devices,iac,power,date,time
679315,43,0,0,2022-06-23,21:46:43
680988,43,0.065,-5.631,2022-06-25,11:33:28
680996,43,0.055,-7.684,2022-06-25,11:36:50
681010,43,0.055,-7.684,2022-06-25,11:43:32
681029,43,0.055,-7.684,2022-06-25,11:52:33
681137,43,0.055,-7.684,2022-06-25,12:46:07
