id,id_m_devices,va,vb,vc,vab,vbc,vca,ia,ib,ic,pa,pb,pc,pt,qa,qb,qc,qt,sa,sb,sc,st,pfa,pfb,pfc,freq,ep,eq,date,time
146698,39,0,0,0,0,0,0,0,0,0,0,0,0,0,0,0,0,0,0,0,0,0,0,0,0,0,0,0,2021-12-29,20:56:37
146699,39,225.36,232.25,230.9,0,0,0,0,0.1,0.13,0,21.48,3.03,24.51,0,2.07,-2.39,-0.32,0,24.15,29.32,53.48,0,1,0.78,49.87,0,0,12-31-2021,15:10:06
146700,39,225.51,232.17,230.97,0,0,0,0,0.12,0.14,0,22.83,0.9,23.73,0,3.8,-7.04,-3.23,0,25.31,33.03,60.19,0,0.99,0.13,49.89,0,0,12-31-2021,15:10:11
146701,39,225.07,232.28,230.84,0,0,0,0,0.12,0.15,0,21.07,1.06,25.16,0,0.52,-7.72,-7.19,0,24.82,34.63,61.57,0,0.99,0.14,49.89,0,0,12-31-2021,15:10:17
146702,39,225.12,231.99,230.78,0,0,0,0,0.11,0.14,0,22.61,5.16,27.01,0,3.08,-2.19,2.04,0,26.2,32.08,57.13,0,0.99,0.45,49.88,0,0,12-31-2021,15:10:22
146703,39,225.36,231.86,230.81,0,0,0,0,0.12,0.13,0,24.36,0.16,23.1,0,5.16,-6.41,-4.16,0,27.13,30,55.73,0,0.98,0.44,49.9,0,0,12-31-2021,15:10:28
146704,39,225.12,232.09,230.92,0,0,0,0,0.1,0.13,0,21.03,4.9,25.92,0,4.71,-2.51,-0.64,0,24.37,29.09,53.46,0,0.98,0.89,49.87,0,0,12-31-2021,15:10:34
146705,39,225.03,231.76,230.64,0,0,0,0,0.11,0.13,0,22.39,0.25,22.64,0,1.07,-5.16,-4.09,0,25.96,30.9,56.86,0,1,0.05,49.85,0,0,12-31-2021,15:10:39
146706,39,225.08,231.8,230.55,0,0,0,0,0.11,0.13,0,22.42,1.25,23.67,0,1.82,-4.42,-2.6,0,25.27,29.74,55.01,0,1,0.27,49.83,0,0,12-31-2021,15:10:45
146707,39,224.31,232.05,230.77,0,0,0,2.21,0.24,0.13,450.91,51.96,1.85,504.72,-180.57,-17.45,-3.48,-201.5,495.02,56.16,31.15,582.58,0.93,0.95,0.47,49.84,0,0,12-31-2021,15:10:51
146708,39,224.61,232.39,230.98,0,0,0,2.21,0.24,0.15,452.29,51.74,3.02,507.05,-182.54,-16.98,-5.61,-205.13,496.47,56.24,34.19,587.94,0.93,0.95,0.47,49.82,0,0,12-31-2021,15:10:56
146709,39,224.65,232.4,230.97,0,0,0,2.21,0.24,0.13,450.93,52.04,1.03,504,-181.94,-15.42,-4.01,-201.37,497.38,56.24,30.72,582.99,0.93,0.96,0.25,49.86,0,0,12-31-2021,15:11:02
146710,39,224.55,232.36,230.98,0,0,0,2.21,0.24,0.12,451.98,52.45,1.28,505.71,-182.27,-17.2,-3.99,-203.45,497.08,56.46,27.95,581.58,0.93,0.95,0.31,49.81,0,0,12-31-2021,15:11:08
146711,39,224.6,232.25,230.89,0,0,0,2.21,0.24,0.27,452.43,51.21,11.74,515.39,-180.3,-18.18,-10.29,-208.77,497.22,55.51,62.34,614.43,0.93,0.94,0.75,49.83,0,0,12-31-2021,15:11:13
146712,39,224.68,232.35,230.7,0,0,0,2.22,0.24,0.32,453.3,50.56,17.5,521.36,-181.44,-16.13,-13.32,-210.89,497.02,54.83,74.75,627.7,0.93,0.95,0.8,49.81,0,0,12-31-2021,15:11:19
146713,39,224.72,232.38,230.87,0,0,0,2.22,0.24,0.33,452.98,51.86,18.1,522.28,-183.44,-16.12,-12.32,-211.88,497.24,55.77,75.26,629.01,0.93,0.95,0.83,49.82,0,0,12-31-2021,15:11:24
146714,39,224.54,232.18,230.8,0,0,0,2.22,0.24,0.33,452.1,51.78,16.94,521.52,-183.62,-16.85,-12.99,-213.46,497.18,55.95,76.63,630.83,0.93,0.95,0.79,49.82,0,0,12-31-2021,15:11:30
146715,39,224.53,232.16,230.76,0,0,0,2.22,0.24,0.32,452.35,51.41,17.61,521.82,-181.23,-17.65,-11.89,-210.77,497.44,55.49,73.38,626.43,0.93,0.95,0.83,49.84,0,0,12-31-2021,15:11:36
146716,39,224.61,232.17,230.97,0,0,0,2.22,0.24,0.43,452.53,50.73,27.08,530.79,-182.5,-17.98,-18.41,-217.74,497.61,55.26,98.62,651.83,0.93,0.94,0.83,49.84,0,0,12-31-2021,15:11:41
146717,39,224.59,232.17,230.99,0,0,0,2.22,0.24,0.32,451.69,52.25,16.54,521.32,-182.84,-15.31,-11.97,-209.64,497.02,55.95,75.07,628.71,0.93,0.96,0.81,49.87,0,0,12-31-2021,15:11:47
146718,39,224.62,232.1,230.83,0,0,0,2.21,0.24,0.32,451.23,51.13,15.37,519.81,-183.41,-14.99,-13.02,-209.83,496.79,53.61,74.56,627.55,0.93,0.95,0.76,49.91,0,0,12-31-2021,15:11:52
146719,39,224.42,232.18,230.95,0,0,0,2.21,0.24,0.34,451.86,50.4,17.86,520.37,-181.94,-17.25,-12.9,-212.79,496.9,56.45,78.52,630.87,0.93,0.94,0.81,49.87,0,0,12-31-2021,15:11:58
146720,39,224.72,232.32,230.97,0,0,0,2.22,0.24,0.3,453.92,50.38,15.48,519.01,-181.62,-16.87,-10.84,-210.09,498.66,54.05,70.21,623.38,0.93,0.96,0.82,49.85,0,0,12-31-2021,15:12:04
146721,39,224.22,231.55,230.75,0,0,0,2.22,0.23,0.3,452.74,50.96,14.05,515,-181.43,-17.34,-13.36,-212.42,497.54,54.91,69.22,619.7,0.93,0.95,0.72,49.84,0,0,12-31-2021,15:12:09
146722,39,224.42,232.12,230.89,0,0,0,2.21,0.24,0.31,451.78,51.57,15.77,519.35,-180.82,-16.16,-10.74,-208.84,496.2,55.47,72.27,624.61,0.93,0.95,0.83,49.84,0,0,12-31-2021,15:12:15
146723,39,224.52,232.04,231.02,0,0,0,2.22,0.24,0.3,452.65,51.27,15.92,520.91,-182.17,-15.72,-11.09,-208.04,497.77,55.46,68.84,621.95,0.93,0.95,0.79,49.88,0,0,12-31-2021,15:12:21
146724,39,224.39,232.17,230.95,0,0,0,2.21,0.24,0.31,451.07,50.45,14.44,518.9,-181.12,-15.35,-11.79,-210.16,495.67,54.99,70.9,623.98,0.93,0.94,0.82,49.88,0,0,12-31-2021,15:12:26
146725,39,225.22,231.87,230.96,0,0,0,0,0.24,0.29,0,51.45,13.16,65.9,0,-19.1,-13.48,-24.73,0,55.84,71.08,123.32,0,0.94,0.79,49.89,0,0,12-31-2021,15:12:32
146726,39,225.42,231.96,230.96,0,0,0,0,0.23,0.31,0,48.99,15.07,68.67,0,-17.06,-11.69,-27.58,0,52.89,71.77,124.66,0,0.94,0.75,49.86,0,0,12-31-2021,15:12:37
146727,39,225.42,231.95,230.92,0,0,0,0,0.24,0.32,0,50.98,17.68,68.67,0,-19.5,-13.1,-32.61,0,56.13,74.13,130.26,0,0.93,0.8,49.88,0,0,12-31-2021,15:12:43
146728,39,225.75,231.95,231.09,0,0,0,0,0.23,0.3,0,48.58,12.62,61.2,0,-16.18,-12.1,-28.27,0,52.42,69.33,121.75,0,0.95,0.72,49.92,0,0,12-31-2021,15:12:49
146729,39,224.86,232.23,231.24,0,0,0,2.22,0.23,0.3,454.55,50.41,13.09,517.09,-183.66,-16.99,-11.38,-212.04,499.57,54.57,70.07,623.83,0.93,0.97,0.75,49.91,0,0,12-31-2021,15:12:54
146730,39,224.93,232.04,231.24,0,0,0,2.22,0.24,0.46,453.69,51.28,27.97,533.15,-183.03,-15.56,-26.12,-224.71,498.79,54.99,105.68,659.79,0.93,0.95,0.73,49.91,0,0,12-31-2021,15:13:00
146731,39,225.61,231.83,231.11,0,0,0,0,0.23,0.37,0,50.66,19.56,70.22,0,-15.78,-16.15,-31.93,0,54.7,84.35,138.83,0,0.95,0.77,49.91,0,0,12-31-2021,15:13:06
146732,39,225.53,231.81,231.22,0,0,0,0,0.24,0.3,0,48.3,10.54,62.23,0,-17.47,-13.27,-30.27,0,52.4,70.06,125.69,0,0.94,0.82,49.91,0,0,12-31-2021,15:13:11
146733,39,225.41,231.77,230.97,0,0,0,0,0.24,0.32,0,52.85,16.13,66.8,0,-17.04,-12.42,-27.74,0,56.55,71.65,128.2,0,0.95,0.84,49.87,0,0,12-31-2021,15:13:17
146734,39,225.46,231.79,231.03,0,0,0,0,0.24,0.3,0,52.52,16.97,69.49,0,-15.99,-9.96,-26.8,0,56.09,70.24,126.33,0,0.96,0.86,49.86,0,0,12-31-2021,15:13:22
146735,39,225,232.46,231.27,0,0,0,2.22,0.23,0.3,453.83,51.2,13.56,518.59,-183.43,-15.31,-10.41,-209.15,499.49,54.39,69.61,623.5,0.93,0.96,0.79,49.87,0,0,12-31-2021,15:13:28
146736,39,225.13,232.37,231.35,0,0,0,2.22,0.24,0.29,454.21,51.04,14.75,520,-183.02,-17.3,-10.22,-210.54,499.57,55.3,66.86,621.73,0.93,0.95,0.82,49.85,0,0,12-31-2021,15:13:34
146737,39,226.02,232.13,231.32,0,0,0,0,0.26,0.29,0,55.89,11.4,67.29,0,-15.9,-10.89,-26.79,0,59.42,67.08,126.51,0,0.96,0.72,49.88,0,0,12-31-2021,15:13:39
146738,39,225.8,232.11,231.07,0,0,0,0,0.24,0.3,0,52.69,13.05,65.74,0,-17.26,-12.12,-29.38,0,55.05,68.63,125.03,0,0.95,0.73,49.87,0,0,12-31-2021,15:13:45
146739,39,225.92,232.21,231.22,0,0,0,0,0.24,0.29,0,51.25,15.76,67.85,0,-14.62,-8.3,-22.92,0,55.03,67.98,123.24,0,0.95,0.78,49.87,0,0,12-31-2021,15:13:51
146740,39,226.08,232.26,231.14,0,0,0,0,0.24,0.3,0,51.75,14.45,65.69,0,-16.99,-9.96,-26.56,0,55.97,66.27,124.16,0,0.95,0.84,49.88,0,0,12-31-2021,15:13:56
146741,39,225.59,232.86,231.2,0,0,0,2.22,0.24,0.29,456.21,52.09,12.99,519.21,-184.06,-15.96,-10.28,-209.74,501.71,55.89,68.7,623.54,0.93,0.96,0.77,49.84,0,0,12-31-2021,15:14:02
146742,39,225.7,232.69,231.42,0,0,0,2.22,0.23,0.29,456.37,50.85,13.94,522.08,-184.35,-15.56,-7.65,-209.56,502.17,54.22,69.84,626.23,0.93,0.96,0.76,49.84,0,0,12-31-2021,15:14:08
146743,39,226.41,232.81,231.17,0,0,0,0,0.24,0.29,0,52.06,14.33,66.39,0,-14.46,-9.95,-26.2,0,55.41,67.51,122.92,0,0.96,0.82,49.84,0,0,12-31-2021,15:14:13
146744,39,226.26,232.63,231.15,0,0,0,0,0.24,0.3,0,51.46,16.45,67.9,0,-17.01,-8.14,-25.15,0,55.6,70.04,125.63,0,0.95,0.9,49.86,0,0,12-31-2021,15:14:19
146745,39,226.25,232.58,231.17,0,0,0,0,0.24,0.31,0,51.78,16.42,68.21,0,-17,-10.54,-27.54,0,55.82,72.59,128.41,0,0.96,0.84,49.83,0,0,12-31-2021,15:14:24
146746,39,226.27,232.44,231.13,0,0,0,0,0.24,0.31,0,51.43,14.91,66.34,0,-16.32,-11.36,-27.68,0,54.67,70.96,126.28,0,0.95,0.79,49.82,0,0,12-31-2021,15:14:30
146747,39,225.46,232.79,231.12,0,0,0,2.22,0.23,0.3,454,50.89,13.18,518.61,-184.56,-15.56,-10.03,-210.07,500.08,54.46,70.26,625.73,0.93,0.95,0.8,49.85,0,0,12-31-2021,15:14:36
146748,39,226.18,232.79,231.26,0,0,0,0,0.24,0.29,0,52.01,13.94,520.74,0,-16.66,-10.1,-210.96,0,55.81,67.53,624.44,0,0.95,0.81,49.85,0,0,12-31-2021,15:14:41
146749,39,226.23,232.59,231.12,0,0,0,0,0.23,0.29,0,51.26,15.5,67.37,0,-15.1,-8.15,-25.93,0,54.39,66.35,124,0,0.96,0.77,49.82,0,0,12-31-2021,15:14:47
146750,39,226.16,232.22,231.03,0,0,0,0,0.24,0.29,0,50.58,15.7,66.28,0,-17.3,-9.02,-25.42,0,54.8,67.02,121.82,0,0.95,0.87,49.85,0,0,12-31-2021,15:14:53
146751,39,225.91,232.1,230.95,0,0,0,0,0.24,0.28,0,50.65,14.95,65.6,0,-17.68,-9.22,-26.89,0,54.78,64.2,118.98,0,0.94,0.85,49.86,0,0,12-31-2021,15:14:58
146752,39,225.68,232.36,231.29,0,0,0,0,0.24,0.29,0,52.38,14,66.38,0,-16.13,-9.36,-25.49,0,56,67.07,123.07,0,0.96,0.83,49.85,0,0,12-31-2021,15:15:04
146753,39,224.71,232.6,231.41,0,0,0,2.45,0.24,0.3,484.51,51.38,13.84,550.61,-219.43,-16.86,-10.61,-245.2,549.51,56.06,68.5,674.19,0.91,0.96,0.79,49.85,0,0,12-31-2021,15:15:10
146754,39,224.75,232.67,231.43,0,0,0,2.45,0.24,0.29,21.63,52.19,13.63,551,-28.6,-16.88,-9.36,-245.27,38.11,56.31,66.42,672.69,0.6,0.95,0.82,49.86,0,0,12-31-2021,15:15:15
146755,39,223.09,231.8,230.54,0,0,0,2.43,0.24,0.37,479.74,51.53,23.35,553.48,-216.32,-15.49,-17.68,-250.57,543.01,54.99,67.35,681.6,0.91,0.96,0.75,49.9,0,0,12-31-2021,15:27:04
146756,39,223.01,231.78,230.47,0,0,0,2.44,0.24,0.28,480.49,51.82,12.85,542.99,-214.66,-15.85,-10.2,-241.3,543.25,55.44,65.97,660.95,0.91,0.96,0.81,49.91,0,0,12-31-2021,15:27:10
146757,39,223.35,232.28,230.66,0,0,0,2.44,0.24,0.28,480.73,50.83,12.69,543.38,-217.5,-18.34,-11.09,-244.79,544.54,55.28,62.33,663.62,0.91,0.94,0.81,49.92,0,0,12-31-2021,15:27:15
146758,39,223.23,232.17,230.61,0,0,0,2.44,0.24,0.27,480.6,50.95,12.19,544.21,-216.27,-16,-9.63,-244.06,544,54.79,61.34,660.13,0.91,0.95,0.82,49.93,0,0,12-31-2021,15:27:21
146759,39,223.32,232.17,230.56,0,0,0,2.43,0.23,0.27,480.46,49.73,11.3,544.74,-215.3,-16.64,-9.4,-243.48,543.55,53.86,60.38,657.8,0.91,0.95,0.74,49.94,0,0,12-31-2021,15:27:27
146760,39,223.26,232.16,230.45,0,0,0,2.44,0.24,0.26,480.47,51.47,11.5,542.93,-217.09,-16.39,-8.56,-242.61,544.52,55.49,60.14,660.15,0.91,0.95,0.8,49.95,0,0,12-31-2021,15:27:32
146761,39,223.24,232.23,230.49,0,0,0,2.44,0.24,0.27,480.38,51.88,11.28,543.54,-216.83,-15.92,-10.4,-243.69,544.04,55.5,60.62,660.16,0.91,0.96,0.74,49.92,0,0,12-31-2021,15:27:38
146762,39,223.33,232.29,230.55,0,0,0,2.44,0.24,0.27,480.74,51.65,11.66,544.06,-217.35,-17.27,-10.37,-240.34,544.69,55.52,61.78,661.99,0.91,0.95,0.75,49.91,0,0,12-31-2021,15:27:44
146763,39,226.89,233,231.67,0,0,0,0.16,0.24,0.26,21.1,52.78,9.66,83.54,-26.64,-16.13,-10.63,-53.4,36.08,56.39,61.39,153.85,0.68,0.96,0.67,49.92,0,0,12-31-2021,15:29:25
146764,39,226.9,232.89,231.83,0,0,0,0.16,0.24,0.26,19.56,50.88,11.24,81.68,-28.17,-17.8,-9.68,-55.65,36.08,55.2,61.2,152.25,0.6,0.94,0.76,49.89,0,0,12-31-2021,15:29:30
146765,39,226.77,232.88,231.74,0,0,0,0.16,0.24,0.27,18.62,52.14,12.07,82.84,-27.89,-16.1,-9.42,-53.41,37.89,55.89,61.87,153.37,0.56,0.95,0.79,49.88,0,0,12-31-2021,15:29:36
146766,39,226.21,233.22,231.85,0,0,0,2.46,0.24,0.27,488.49,52.06,13.41,555.1,-223.28,-16.88,-9.39,-249.55,554.93,55.97,62.37,674.58,0.91,0.95,0.82,49.88,0,0,12-31-2021,15:29:41
146767,39,226.17,233.16,231.79,0,0,0,2.45,0.24,0.29,487.73,51.69,14.8,553.91,-223.68,-15.61,-11.81,-251.09,554.6,55.02,67.68,677.04,0.91,0.96,0.78,49.88,0,0,12-31-2021,15:29:47
146768,39,226.98,233.05,231.9,0,0,0,0.16,0.24,0.28,20.73,52.14,13.51,87.12,-28.29,-16.21,-9.61,-54.12,36.32,55.93,65.4,158.55,0.6,0.96,0.81,49.87,0,0,12-31-2021,15:29:53
146769,39,226.92,233.12,231.76,0,0,0,0.16,0.24,0.26,20.09,51.63,11.2,83.47,-28.39,-15.94,-8.1,-52.34,36.54,55.02,59.79,151.57,0.58,0.97,0.81,49.88,0,0,12-31-2021,15:29:58
146770,39,226.91,233.26,231.82,0,0,0,0.16,0.24,0.25,21.23,51.46,10.71,82.5,-28.41,-17.75,-7.78,-53.56,37.25,55.75,58.19,150.02,0.6,0.96,0.81,49.89,0,0,12-31-2021,15:30:04
146771,39,226.97,233.21,231.83,0,0,0,0.16,0.24,0.27,20.74,51.71,12.89,84.3,-27.42,-16.82,-9.59,-54.32,36.11,55.5,63.06,154.42,0.6,0.95,0.8,49.89,0,0,12-31-2021,15:30:10
146772,39,222.87,228.76,229.74,0,0,0,0,0.08,0.24,0,14.56,8.06,22.62,0,1.53,-8.59,-7.07,0,18.53,55.37,73.9,0,1,0.68,49.82,1,0,01-04-2022,15:14:50
146773,39,224.46,230.4,230.97,0,0,0,0,0.2,0.56,0,41.28,37.39,78.68,0,-15.38,-28.18,-43.56,0,45.85,129.58,175.43,0,0.94,0.8,49.93,1,0,01-04-2022,15:17:04
146774,39,224.41,230.78,230.58,0,0,0,0,0.18,0.63,0,38.72,45.35,84.07,0,-13.29,-28.09,-41.38,0,42.46,145.5,187.96,0,0.95,0.85,49.91,1,0,01-04-2022,15:17:34
146775,39,223.64,230.03,230.61,0,0,0,0.14,0.2,0.52,16.6,40.82,36.81,92.27,-23.84,-16.61,-25.4,-65.43,31.31,45.55,119.92,196.72,0.57,0.93,0.82,49.88,1,0,01-04-2022,15:18:57
146776,39,223.64,230.03,230.61,0,0,0,0.14,0.2,0.52,16.6,40.82,36.81,92.27,-23.84,-16.61,-25.4,-65.43,31.31,45.55,119.92,196.72,0.57,0.93,0.82,49.88,1,0,01-04-2022,15:23:57
146777,39,223.11,228.57,229.4,0,0,0,0,0.19,0.38,0,39.63,20.57,60.2,0,-15.2,-13.19,-28.39,0,43.66,86.49,130.14,0,0.93,0.84,49.83,1,0,01-04-2022,15:25:50
146778,39,223.11,228.57,229.4,0,0,0,0,0.19,0.38,0,39.63,20.57,60.2,0,-15.2,-13.19,-28.39,0,43.66,86.49,130.14,0,0.93,0.84,49.83,1,0,01-04-2022,15:25:55
146779,39,223.11,228.57,229.4,0,0,0,0,0.19,0.38,0,39.63,20.57,60.2,0,-15.2,-13.19,-28.39,0,43.66,86.49,130.14,0,0.93,0.84,49.83,1,0,01-04-2022,15:26:00
146780,39,223.11,228.57,229.4,0,0,0,0,0.19,0.38,0,39.63,20.57,60.2,0,-15.2,-13.19,-28.39,0,43.66,86.49,130.14,0,0.93,0.84,49.83,1,0,01-04-2022,15:26:05
146781,39,223.11,228.57,229.4,0,0,0,0,0.19,0.38,0,39.63,20.57,60.2,0,-15.2,-13.19,-28.39,0,43.66,86.49,130.14,0,0.93,0.84,49.83,1,0,01-04-2022,15:26:10
146782,39,223.11,228.57,229.4,0,0,0,0,0.19,0.38,0,39.63,20.57,60.2,0,-15.2,-13.19,-28.39,0,43.66,86.49,130.14,0,0.93,0.84,49.83,1,0,01-04-2022,15:26:15
146783,39,223.11,228.57,229.4,0,0,0,0,0.19,0.38,0,39.63,20.57,60.2,0,-15.2,-13.19,-28.39,0,43.66,86.49,130.14,0,0.93,0.84,49.83,1,0,01-04-2022,15:26:20
146784,39,222.72,228.51,229.29,0,0,0,0.14,0.19,0.38,16.22,39.84,19.87,74.88,-24.85,-14.77,-14.85,-56.28,31.85,43.65,85.98,161.76,0.55,0.94,0.8,49.84,1,0,01-04-2022,15:26:40
146785,39,222.72,228.51,229.29,0,0,0,0.14,0.19,0.38,16.22,39.84,19.87,74.88,-24.85,-14.77,-14.85,-56.28,31.85,43.65,85.98,161.76,0.55,0.94,0.8,49.84,1,0,01-04-2022,15:26:45
146786,39,222.72,228.51,229.29,0,0,0,0.14,0.19,0.38,16.22,39.84,19.87,74.88,-24.85,-14.77,-14.85,-56.28,31.85,43.65,85.98,161.76,0.55,0.94,0.8,49.84,1,0,01-04-2022,15:26:50
146787,39,222.72,228.51,229.29,0,0,0,0.14,0.19,0.38,16.22,39.84,19.87,74.88,-24.85,-14.77,-14.85,-56.28,31.85,43.65,85.98,161.76,0.55,0.94,0.8,49.84,1,0,01-04-2022,15:26:55
146788,39,222.72,228.51,229.29,0,0,0,0.14,0.19,0.38,16.22,39.84,19.87,74.88,-24.85,-14.77,-14.85,-56.28,31.85,43.65,85.98,161.76,0.55,0.94,0.8,49.84,1,0,01-04-2022,15:27:00
146789,39,222.72,228.51,229.29,0,0,0,0.14,0.19,0.38,16.22,39.84,19.87,74.88,-24.85,-14.77,-14.85,-56.28,31.85,43.65,85.98,161.76,0.55,0.94,0.8,49.84,1,0,01-04-2022,15:27:05
146790,39,223.64,230.03,230.61,0,0,0,0.14,0.2,0.52,16.6,40.82,36.81,92.27,-23.84,-16.61,-25.4,-65.43,31.31,45.55,119.92,196.72,0.57,0.93,0.82,49.88,1,0,01-04-2022,15:28:57
146791,39,222.6,229.76,230.57,0,0,0,2.86,0.2,0.16,502.58,41.83,5.66,546.32,-306.65,-14.14,-5.16,-328.28,635.51,45.26,44.96,720.04,0.85,0.95,0.74,49.88,1,0,01-04-2022,15:30:44
146792,39,222.59,229.69,230.54,0,0,0,2.86,0.2,0.27,503.18,41.66,11.72,555.73,-306.39,-15,-7.83,-328.42,635.94,45.48,63.17,743.38,0.85,0.94,0.83,49.86,1,0,01-04-2022,15:30:51
146793,39,222.48,229.88,230.41,0,0,0,2.85,0.2,0.35,502.83,43.01,16.15,561.99,-305.14,-14.08,-13.62,-332.84,634.94,46.67,80.87,762.48,0.86,0.95,0.76,49.86,1,0,01-04-2022,15:30:57
146794,39,222.56,229.79,230.49,0,0,0,2.86,0.2,0.36,502.68,41.21,18.15,562.95,-307,-15.61,-14.76,-334.6,635.63,45.5,82.98,764.58,0.85,0.93,0.78,49.89,1,0,01-04-2022,15:31:03
146795,39,222.24,229.89,230.46,0,0,0,2.85,0.2,0.35,502.4,41.24,17.05,559.56,-305.93,-15.56,-13.14,-334.63,634.11,45.52,80.43,760.22,0.86,0.94,0.79,49.87,1,0,01-04-2022,15:31:10
146796,39,221.76,229.33,230.16,0,0,0,2.85,0.2,0.38,501.72,40.95,19.48,562.15,-302.94,-14.73,-14.11,-331.49,632.23,44.95,87.23,764.41,0.86,0.94,0.81,49.88,1,0,01-04-2022,15:31:16
146797,39,221.6,228.77,230.05,0,0,0,2.99,0.2,0.36,500.72,40.29,19.38,559.45,-334.69,-17.06,-12.02,-364.73,661.92,44.62,82.59,789.05,0.83,0.93,0.85,49.87,1,0,01-04-2022,15:31:22
146798,39,221.68,228.76,230.01,0,0,0,2.99,0.2,0.35,501.14,40.89,18.38,560.41,-335.79,-15.8,-11.31,-362.9,662.84,45.3,80.05,788.18,0.83,0.93,0.85,49.86,1,0,01-04-2022,15:31:29
146799,39,221.51,228.77,229.95,0,0,0,2.99,0.2,0.35,501.12,41.45,16.62,559.46,-333.83,-14.85,-14.12,-362.63,662.08,45.53,80.45,786.06,0.83,0.94,0.76,49.86,1,0,01-04-2022,15:31:35
146800,39,221.75,228.78,230.14,0,0,0,2.99,0.2,0.35,500.91,41.85,15.43,557.18,-335.87,-13.58,-14.89,-364.76,662.58,45.53,81.47,788.88,0.83,0.95,0.72,49.87,1,0,01-04-2022,15:31:41
146801,39,221.79,229.15,230.25,0,0,0,2.99,0.19,0.38,501.33,40.57,18.06,559.96,-335.5,-14.43,-15.84,-365.78,663.61,44.45,87.49,795.56,0.83,0.94,0.75,49.85,1,0,01-04-2022,15:31:48
146802,39,221.89,229.27,230.13,0,0,0,2.99,0.19,0.35,502.69,41.26,18.41,559.89,-333.21,-14.07,-13.24,-362.79,663.89,44.71,81.24,788.76,0.83,0.95,0.84,49.82,1,0,01-04-2022,15:31:54
146803,39,221.89,229.2,230.32,0,0,0,2.99,0.2,0.43,502.12,41.5,24.05,566.02,-336.91,-14.17,-13.62,-364.01,664.65,44.92,98.58,806.29,0.83,0.95,0.87,49.85,1,0,01-04-2022,15:32:00
146804,39,222.15,229.58,230.41,0,0,0,2.99,0.19,0.34,502.24,39.84,16.27,558.35,-337.21,-15.71,-14.18,-367.1,664.91,44.08,79.49,788.48,0.83,0.93,0.75,49.9,1,0,01-04-2022,15:32:07
146805,39,221.77,229.32,230.32,0,0,0,2.99,0.19,0.34,502.13,40.43,17.51,561.63,-335.7,-14.67,-11.49,-359.41,663.54,44.26,78.54,786.75,0.83,0.94,0.84,49.93,1,0,01-04-2022,15:32:13
146806,39,221.74,229.17,230.33,0,0,0,2.99,0.19,0.34,502.67,40.76,17.79,561.23,-334.98,-14.46,-13.35,-362.79,663.8,44.46,77.85,785.98,0.83,0.94,0.8,49.91,1,0,01-04-2022,15:32:19
146807,39,221.75,229.23,230.23,0,0,0,2.99,0.2,0.37,500.9,41.37,18.25,560.09,-336.05,-14.58,-14.28,-363.93,663.02,45.16,84.25,792.43,0.83,0.94,0.79,49.92,1,0,01-04-2022,15:32:26
146808,39,221.9,229.21,230.55,0,0,0,2.99,0.2,0.38,501.21,41.59,20.95,563.22,-335.59,-14.73,-14.68,-367.53,663.05,46.53,87.61,797.1,0.83,0.92,0.82,49.92,1,0,01-04-2022,15:32:32
146809,39,221.79,229.32,230.33,0,0,0,2.99,0.19,0.35,500.51,40.49,17.74,558.73,-336.01,-14.93,-15.48,-366.42,662.25,44.72,81.77,788.74,0.83,0.94,0.75,49.92,1,0,01-04-2022,15:32:38
146810,39,221.88,229.3,230.29,0,0,0,2.99,0.2,0.38,500.46,39.86,19.25,560.55,-335.4,-17.19,-15.08,-367.79,662.52,44.94,82.91,795.04,0.83,0.92,0.77,49.94,1,0,01-04-2022,15:32:45
146811,39,222.89,229.12,230.06,0,0,0,0.14,0.2,0.37,15.42,40.38,17.92,75.57,-24.64,-16.04,-13.91,-53.51,30.98,44.91,85.35,161.7,0.53,0.93,0.79,49.94,1,0,01-04-2022,15:32:51
146812,39,222.86,228.92,230.07,0,0,0,0.14,0.2,0.35,14.16,40.59,19.33,74.08,-24.57,-15.77,-12.01,-52.35,30.53,44.87,81.22,156.62,0.5,0.93,0.85,49.94,1,0,01-04-2022,15:32:57
146813,39,222.95,229.14,230.18,0,0,0,0.14,0.19,0.35,15.68,39.62,17.65,73,-23.92,-16.36,-13.52,-54.4,30.32,44.45,79.87,154.62,0.55,0.92,0.83,49.91,1,0,01-04-2022,15:33:04
146814,39,223.17,229.4,230.53,0,0,0,0.14,0.19,0.35,14.61,39.47,18.7,74.44,-26.19,-15.81,-13.36,-53.24,32.14,44.27,80.69,156.22,0.49,0.93,0.81,49.91,1,0,01-04-2022,15:33:10
146815,39,222.18,229.54,230.42,0,0,0,2.99,0.2,0.35,501.45,41.18,17.68,560.31,-336.67,-13.98,-13.13,-363.78,663.87,44.99,79.96,788.82,0.83,0.95,0.8,49.93,1,0,01-04-2022,15:33:17
146816,39,223.07,229.74,230.32,0,0,0,2.99,0.2,0.35,502.2,41.78,16.97,560.95,-339.2,-13.77,-13.65,-366.61,668.47,45.49,79.69,792.15,0.83,0.95,0.78,49.85,1,0,01-04-2022,15:35:08
146817,39,223.94,229.06,230.26,0,0,0,0,0.2,0.36,0,41.58,18.19,59.77,0,-15.25,-13.3,-28.56,0,45.58,82.43,128.02,0,0.94,0.81,49.88,1,0,01-04-2022,15:35:31
146818,39,224.04,229.53,230.36,0,0,0,0,0.19,0.41,0,38.03,22.29,60.33,0,-15.79,-17.16,-32.96,0,42.46,95.14,137.6,0,0.92,0.79,49.86,1,0,01-04-2022,15:36:12
146819,39,224.31,229.86,230.41,0,0,0,0,0.2,0.55,0,40.72,38,78.72,0,-16.62,-26.89,-43.51,0,45.28,126.96,172.24,0,0.93,0.82,49.86,1,0,01-04-2022,15:36:48
146820,39,224.18,229.68,230.8,0,0,0,0,0.2,0.52,0,41.6,36.15,77.74,0,-15.3,-26.54,-41.84,0,45.48,120.71,166.19,0,0.94,0.81,49.92,1,0,01-04-2022,15:37:11
146821,39,223.92,229.38,230.79,0,0,0,0,0.2,0.55,0,43.61,33.14,78.17,0,-14.46,-29.35,-43.93,0,47.02,120.33,172.12,0,0.95,0.75,49.9,1,0,01-04-2022,15:37:17
146822,39,222.61,229.44,230.91,0,0,0,2.86,0.2,0.42,502.48,41.15,26.11,570.47,-306.13,-15.31,-15.42,-336.85,635.11,44.97,96.06,777.01,0.85,0.94,0.86,49.89,1,0,01-04-2022,15:39:51
146823,39,224.03,229.59,231.1,0,0,0,0,0.19,0.45,0,39.23,28.6,67.83,0,-16.52,-16.59,-35.43,0,43.85,103.53,147.39,0,0.92,0.87,49.91,1,0,01-04-2022,15:40:26
146824,39,223.89,229.69,230.95,0,0,0,0,0.19,0.63,0,39.39,44.01,84.88,0,-14.96,-30.02,-43.1,0,43.41,93.32,188.91,0,0.93,0.83,49.88,1,0,01-04-2022,15:40:31
146825,39,224.1,229.77,231.11,0,0,0,0,0.21,0.44,0,40.17,25.35,68.93,0,-16.98,-16.86,-33.84,0,44.31,101.69,149.94,0,0.93,0.83,49.9,1,0,01-04-2022,15:40:36
146826,39,224.11,229.72,230.93,0,0,0,0,0.19,0.41,0,41,26.89,67.89,0,-12.11,-17.24,-29.36,0,44.11,95.84,139.94,0,0.96,0.84,49.87,1,0,01-04-2022,15:40:41
146827,39,224.07,229.52,230.87,0,0,0,0,0.2,0.46,0,41.11,27.55,68.67,0,-15.93,-19.34,-35.27,0,45.22,105.28,150.49,0,0.93,0.82,49.88,1,0,01-04-2022,15:40:47
146828,39,223.19,229.98,231.27,0,0,0,2.86,0.2,0.42,504.05,40.65,25.15,569.86,-308.13,-16.84,-17.54,-342.51,637.89,45.31,96.21,779.4,0.85,0.92,0.82,49.87,1,0,01-04-2022,15:40:52
146829,39,223.12,230.06,231.22,0,0,0,2.99,0.2,0.41,503.31,41.6,24.47,568.62,-339.41,-13.73,-16.54,-372.21,667.58,45.09,94.13,806.38,0.83,0.95,0.83,49.89,1,0,01-04-2022,15:40:57
146830,39,223.07,230.11,231.29,0,0,0,3,0.2,0.41,504.48,41.29,25.91,571.26,-340.1,-15.64,-17.01,-373.84,669.2,46,94.14,808.48,0.83,0.93,0.84,49.88,1,0,01-04-2022,15:41:03
146831,39,222.95,229.95,231.07,0,0,0,2.99,0.2,0.49,502.88,41.78,30.04,574.7,-339.38,-15.14,-20.54,-375.06,667.64,45.76,114.15,826.99,0.83,0.94,0.82,49.87,1,0,01-04-2022,15:41:08
146832,39,222.98,229.95,231.12,0,0,0,2.99,0.2,0.41,502.69,41.13,24.63,568.45,-338.48,-16.14,-16.7,-371.32,666.48,45.53,94.3,806.3,0.83,0.93,0.83,49.85,1,0,01-04-2022,15:41:13
146833,39,222.86,229.96,231.03,0,0,0,3,0.2,0.4,502.98,41.48,23.52,566.9,-340.27,-16.16,-15.89,-370.07,667.93,45.76,100.36,803.72,0.83,0.93,0.83,49.87,1,0,01-04-2022,15:41:19
146834,39,222.53,229.51,230.68,0,0,0,2.99,0.19,0.38,502.61,40.04,21.81,563.68,-338.2,-16.01,-13.4,-366.6,666.03,44.29,86.74,795.66,0.83,0.93,0.85,49.9,1,0,01-04-2022,15:42:26
146835,39,222.52,229.5,230.62,0,0,0,2.99,0.2,0.37,501.54,41.06,20.36,562.96,-337.62,-16.64,-14.4,-368.66,664.66,45.44,84.18,794.28,0.83,0.93,0.82,49.89,1,0,01-04-2022,15:42:31
146836,39,222.57,229.39,230.65,0,0,0,2.99,0.2,0.38,502.53,40.72,19.82,564.19,-338.78,-15.89,-14.03,-367.64,666.17,44.96,86.73,796.52,0.83,0.93,0.82,49.9,1,0,01-04-2022,15:42:37
146837,39,223.03,228.59,230.29,0,0,0,0.14,0.19,0.39,14.04,40.8,22.26,78.03,-24.43,-14.16,-15.23,-53.86,30.33,44.35,90.96,165.64,0.5,0.94,0.82,49.9,1,0,01-04-2022,15:43:05
146838,39,223.12,228.6,230.3,0,0,0,0.14,0.19,0.42,15.69,38.22,23.84,78.23,-25.16,-15.23,-14.41,-54.08,30.79,42.3,96.73,171.41,0.53,0.92,0.86,49.9,1,0,01-04-2022,15:43:07
146839,39,223.11,228.67,230.29,0,0,0,0.14,0.18,0.4,15.81,37.89,22.8,76.72,-24.92,-14.79,-15.39,-56.68,30.79,41.85,92.8,165.9,0.54,0.93,0.85,49.9,1,0,01-04-2022,15:43:08
146840,39,223.2,228.71,230.49,0,0,0,0.14,0.2,0.37,17.15,41.12,21.69,79.96,-23.68,-15.99,-13.9,-52.86,30.36,45.06,85.51,160.92,0.59,0.93,0.84,49.88,1,0,01-04-2022,15:43:09
146841,39,221.95,228.91,230.49,0,0,0,3,0.19,0.37,501.46,40.07,20.92,562.46,-338.1,-14.72,-13.62,-366.44,664.97,43.72,85.05,793.75,0.83,0.94,0.84,49.88,1,0,01-04-2022,15:43:10
146842,39,222.12,228.93,230.53,0,0,0,2.99,0.19,0.4,502.26,40.12,22.59,564.19,-337.84,-16.77,-15.29,-369.91,664.56,44.64,91.29,800.51,0.83,0.92,0.83,49.87,1,0,01-04-2022,15:43:12
146843,39,222.07,229.09,230.49,0,0,0,2.99,0.2,0.37,501.81,41.46,20.24,563.97,-336.87,-15.66,-13.6,-365.84,664.2,45.59,85.28,795.43,0.83,0.93,0.83,49.87,1,0,01-04-2022,15:43:13
146844,39,221.78,229.07,230.49,0,0,0,2.99,0.19,0.38,500.54,40.47,21.01,562.3,-335.91,-15.77,-14.57,-363.66,662.68,44.46,87.36,794.16,0.83,0.93,0.82,49.87,1,0,01-04-2022,15:43:14
146845,39,221.84,229.12,230.57,0,0,0,2.99,0.19,0.37,502.04,40.6,21.26,560.07,-335.6,-15.56,-15.4,-367.09,663.3,44.45,86.46,791.99,0.83,0.93,0.84,49.88,1,0,01-04-2022,15:43:16
146846,39,221.77,229.04,230.9,0,0,0,2.99,0.2,0.43,501.15,41.12,24.62,566.89,-336.35,-15.89,-18.02,-370.25,663.09,45.12,99.29,807.49,0.83,0.93,0.81,49.88,1,0,01-04-2022,15:43:17
146847,39,220.61,226.92,230.99,0,0,0,3,0.19,0.36,501.36,39.4,20.37,561.13,-335.1,-15.14,-12.61,-362.85,661.18,43.12,83.39,787.69,0.83,0.93,0.85,49.89,1,0,01-04-2022,15:43:18
146848,39,220.61,227.07,231.07,0,0,0,2.98,0.19,0.37,499.02,40.26,20.57,560.08,-332.59,-14.89,-12.5,-360.22,657.86,44.28,84.57,787.07,0.83,0.94,0.86,49.89,1,0,01-04-2022,15:43:20
146849,39,222.04,227.11,231.18,0,0,0,2.99,0.19,0.37,501.76,40.86,21.06,559.66,-337.37,-14.27,-14.27,-361.14,663.91,44.48,84.84,786.09,0.83,0.94,0.83,49.89,1,0,01-04-2022,15:43:21
146850,39,221.86,229.18,230.7,0,0,0,2.99,0.19,0.37,503.1,39.31,24.95,567.58,-334.99,-16.01,-12.09,-364.83,663.59,43.54,85.59,793.98,0.83,0.93,0.9,49.89,1,0,01-04-2022,15:43:22
146851,39,221.91,229.31,230.56,0,0,0,2.99,0.2,0.37,503.28,41.74,18.4,563.42,-335.23,-15.48,-14.71,-364.42,664.63,45.63,84.39,794.65,0.83,0.94,0.78,49.89,1,0,01-04-2022,15:43:24
146852,39,221.95,229.52,230.49,0,0,0,3,0.2,0.36,503.5,41.71,18.37,563.58,-335.99,-13.85,-14.86,-364.69,664.96,44.99,83.44,793.38,0.83,0.95,0.78,49.89,1,0,01-04-2022,15:43:25
146853,39,222.13,229.39,230.51,0,0,0,3,0.2,0.36,503.38,41.35,18.54,563.27,-340.47,-15.69,-14.66,-370.82,664.15,45.19,83.44,795.69,0.83,0.93,0.78,49.92,1,0,01-04-2022,15:43:26
146854,39,222.1,229.24,230.54,0,0,0,2.99,0.18,0.38,502.22,37.7,22.69,562.37,-336.49,-13.72,-13.24,-364,664.3,41.26,88.3,793.71,0.83,0.94,0.86,49.92,1,0,01-04-2022,15:43:28
146855,39,222.05,229.3,230.55,0,0,0,2.99,0.2,0.36,503,41.23,18.76,561.95,-335.37,-15.25,-12.4,-363.61,663.49,44.99,82.77,791.55,0.83,0.94,0.83,49.91,1,0,01-04-2022,15:43:29
146856,39,221.9,229.33,230.59,0,0,0,2.99,0.2,0.36,501.24,41.28,19.67,563.9,-337.13,-15.63,-11.67,-362.29,663.93,45.18,86.21,791.95,0.83,0.93,0.82,49.91,1,0,01-04-2022,15:43:30
146857,39,222,229.46,230.4,0,0,0,2.99,0.2,0.38,502.29,40.87,18.68,561.84,-335.58,-16.16,-13.6,-366.92,663.77,45.66,88.24,797.67,0.83,0.93,0.81,49.91,1,0,01-04-2022,15:43:32
146858,39,221.82,229.6,230.49,0,0,0,2.99,0.19,0.36,500.47,38.76,21.35,560.58,-336.51,-15.8,-10.84,-363.14,663.69,42.71,83.44,789.83,0.83,0.93,0.89,49.88,1,0,01-04-2022,15:43:33
146859,39,222.14,229.49,230.53,0,0,0,3,0.19,0.37,502.7,41.2,19.7,565.68,-335.59,-14.21,-14.03,-363.83,664.98,44.52,84.14,794.21,0.83,0.94,0.81,49.88,1,0,01-04-2022,15:43:34
146860,39,221.88,229.39,230.4,0,0,0,2.99,0.2,0.36,501.39,40.82,18.02,561.54,-336.1,-19.26,-11.51,-368.03,663.65,46.34,82.48,793.8,0.83,0.94,0.84,49.9,1,0,01-04-2022,15:43:36
146861,39,221.95,229.54,230.55,0,0,0,2.99,0.19,0.36,501.94,39.98,19.75,561.88,-334.77,-15.65,-13.76,-364.17,663.85,43.84,83.69,791.6,0.83,0.93,0.82,49.9,1,0,01-04-2022,15:43:37
146862,39,222.28,229.66,230.84,0,0,0,2.99,0.19,0.38,502.86,40.96,19.96,563.01,-336.99,-14.82,-15.36,-365.78,665.73,44.55,82.76,794.49,0.83,0.94,0.82,49.9,1,0,01-04-2022,15:43:38
146863,39,222.28,229.64,230.57,0,0,0,2.99,0.2,0.37,503.08,41.02,19.74,563.84,-337.39,-16.36,-11.8,-365.55,665.72,45.24,84.62,795.58,0.83,0.93,0.86,49.87,1,0,01-04-2022,15:43:40
146864,39,222.29,229.79,230.58,0,0,0,2.99,0.19,0.38,504.12,39.84,21.07,565.03,-335.33,-14.22,-11.54,-361.09,664.88,43.66,86.93,795.46,0.83,0.94,0.88,49.87,1,0,01-04-2022,15:43:41
146865,39,222.31,229.94,230.79,0,0,0,2.99,0.2,0.36,504.26,41.44,17.91,561.37,-337.83,-15.33,-13.69,-367.9,666.76,45.53,82.85,793.98,0.83,0.94,0.79,49.9,1,0,01-04-2022,15:43:42
146866,39,223.51,229.9,230.8,0,0,0,0.13,0.2,0.36,15.87,42.82,19.53,566.61,-24.21,-14.56,-14.39,-366.78,30.17,45.22,83.78,796.98,0.55,0.93,0.8,49.9,1,0,01-04-2022,15:43:44
146867,39,223.5,229.55,230.66,0,0,0,0.13,0.19,0.36,14.68,40.87,20.11,77.13,-24.22,-15.63,-12.86,-52.74,29.73,44.76,82.35,157.74,0.52,0.93,0.84,49.9,1,0,01-04-2022,15:43:45
146868,39,223.5,229.65,230.61,0,0,0,0.14,0.2,0.37,15.86,42.16,20.11,76.05,-24.31,-14.31,-15.25,-54.56,30.4,45.93,83.74,159.35,0.55,0.95,0.8,49.91,1,0,01-04-2022,15:43:46
146869,39,223.4,229.78,230.71,0,0,0,0.15,0.19,0.35,15.45,41.17,19.08,75.7,-27.8,-15.02,-14.43,-57.25,33.06,44.58,81.9,159.54,0.49,0.94,0.8,49.91,1,0,01-04-2022,15:43:48
146870,39,223.52,229.61,230.79,0,0,0,0.15,0.19,0.38,16.31,40.6,21.54,78.45,-26.61,-15.45,-13.36,-55.41,32.63,44.31,87.93,164.88,0.5,0.93,0.85,49.92,1,0,01-04-2022,15:43:49
146871,39,223.47,229.6,230.64,0,0,0,0.13,0.2,0.38,14.24,41.75,22,78.92,-25,-16.07,-13.55,-55.69,30.17,45.92,88.33,165.99,0.5,0.93,0.85,49.92,1,0,01-04-2022,15:43:50
146872,39,223.38,229.59,230.63,0,0,0,0.14,0.2,0.37,15.61,41.32,17.98,73.28,-24.37,-14.01,-14.95,-55.06,30.38,44.56,84.64,159.81,0.54,0.95,0.77,49.92,1,0,01-04-2022,15:43:52
146873,39,223.46,229.4,230.54,0,0,0,0.14,0.19,0.36,15.25,40.34,18.94,75.87,-25.71,-15.26,-14.81,-53.18,31.06,44.05,83.22,158.16,0.51,0.93,0.81,49.9,1,0,01-04-2022,15:43:53
146874,39,223.36,229.56,230.68,0,0,0,0.14,0.19,0.37,14.73,41.07,20.45,76.25,-24.58,-14.93,-15.19,-55.58,30.38,44.76,84.2,159.34,0.51,0.94,0.8,49.9,1,0,01-04-2022,15:43:54
146875,39,223.28,229.51,230.67,0,0,0,0.15,0.19,0.36,15.69,41.09,19.56,76.34,-27.77,-14.48,-13.36,-55.61,32.82,44.52,82.35,159.69,0.49,0.94,0.83,49.9,1,0,01-04-2022,15:43:55
146876,39,223.37,229.53,230.69,0,0,0,0.13,0.19,0.37,15.6,40.07,22.59,76.62,-24.17,-13.81,-14.09,-52.07,30.84,43.84,85.12,158.67,0.53,0.94,0.85,49.92,1,0,01-04-2022,15:43:57
146877,39,222.89,229.55,230.62,0,0,0,0.14,0.19,0.36,15.24,38.93,19.47,74.01,-25.04,-17.48,-13.89,-56.24,31.21,44.3,83.95,159.09,0.52,0.94,0.81,49.92,1,0,01-04-2022,15:43:58
146878,39,223.3,229.27,230.46,0,0,0,0.14,0.19,0.37,15.3,39.79,18.92,74.68,-25.28,-15.02,-14.58,-54.1,31.26,43.56,85.27,160.46,0.52,0.94,0.79,49.88,1,0,01-04-2022,15:43:59
146879,39,223.28,229.09,230.76,0,0,0,0.13,0.19,0.37,16.17,41.04,20.7,75.02,-23.29,-12.13,-14.64,-53.84,29.7,43.76,88.02,159.97,0.57,0.96,0.82,49.88,1,0,01-04-2022,15:44:01
146880,39,223.1,229.17,230.52,0,0,0,0.13,0.2,0.36,15.42,41.19,20.26,76.88,-24.12,-14.83,-12.66,-51.62,29.89,45.15,82.99,158.03,0.54,0.94,0.85,49.88,1,0,01-04-2022,15:44:02
146881,39,223.01,229.1,230.49,0,0,0,0.13,0.19,0.36,14.14,40.4,20.36,74.9,-23.86,-14.96,-15.31,-54.13,28.99,43.99,83.67,156.65,0.51,0.94,0.8,49.91,1,0,01-04-2022,15:44:03
146882,39,223.1,229.08,230.33,0,0,0,0.14,0.19,0.37,13.29,40.36,18.3,73.49,-25.66,-9.74,-14.14,-49.02,30.55,43.07,84.07,157.92,0.46,0.97,0.79,49.91,1,0,01-04-2022,15:44:05
146883,39,222.96,229.05,230.44,0,0,0,0.15,0.19,0.36,14.7,40.49,20.53,74.32,-27.22,-15.07,-14.69,-55.42,32.55,43.52,82.73,157.71,0.47,0.94,0.81,49.89,1,0,01-04-2022,15:44:06
146884,39,223,229.04,230.28,0,0,0,0.14,0.19,0.36,16.05,40.61,19.16,73.42,-24.22,-14.65,-14.76,-56.88,30.77,44.2,83.13,159.21,0.55,0.94,0.79,49.89,1,0,01-04-2022,15:44:07
146885,39,222.89,229.07,230.48,0,0,0,0.14,0.19,0.36,15.81,40.77,20.29,77.16,-24.68,-13.12,-14.14,-53.39,30.31,44.21,83.22,157.75,0.54,0.95,0.82,49.89,1,0,01-04-2022,15:44:09
146886,39,222.92,229.1,230.29,0,0,0,0.14,0.2,0.37,14.29,41.94,19.48,75.71,-25.27,-14.82,-14.01,-54.1,31.66,45.59,84.29,161.53,0.49,0.94,0.81,49.88,1,0,01-04-2022,15:44:10
146887,39,222.91,229.14,230.47,0,0,0,0.14,0.2,0.36,14.81,40.61,22.31,77.73,-25.21,-17.66,-13.74,-56.61,661.38,45.14,82.28,158.18,0.83,0.92,0.85,49.88,1,0,01-04-2022,15:44:11
146888,39,221.79,229.31,230.6,0,0,0,2.99,0.19,0.36,500.89,38.07,18.72,556.08,-336.46,-15.24,-13.69,-365.71,662.7,42.42,82.09,785.9,0.83,0.93,0.81,49.89,1,0,01-04-2022,15:44:13
146889,39,221.73,229.41,230.62,0,0,0,2.99,0.19,0.36,500.33,39.86,20.15,562.51,-335.67,-15.99,-12.91,-363.33,662.31,44.04,83.02,791.15,0.83,0.93,0.84,49.89,1,0,01-04-2022,15:44:14
146890,39,221.88,229.43,230.41,0,0,0,2.99,0.2,0.37,501.32,41.09,20.56,558.68,-336.41,-18.82,-15.48,-367.14,662.98,46.35,83.73,791.38,0.83,0.91,0.84,49.89,1,0,01-04-2022,15:44:15
146891,39,221.83,229.42,230.57,0,0,0,2.99,0.19,0.36,501.14,39.78,19.83,560.76,-338.59,-15.15,-13.93,-367.67,664.38,43.59,83.93,791.9,0.83,0.93,0.82,49.88,1,0,01-04-2022,15:44:17
146892,39,221.74,229.55,230.66,0,0,0,2.99,0.19,0.37,501.17,40.77,18.46,560.39,-335.98,-15.72,-12.24,-363.95,663.22,44.76,84.42,792.4,0.83,0.93,0.83,49.88,1,0,01-04-2022,15:44:18
146893,39,221.82,229.41,230.71,0,0,0,2.99,0.2,0.37,501.47,40.92,20.08,561.74,-337.73,-15.42,-14.54,-365.83,663.99,44.96,84.9,792.46,0.83,0.94,0.81,49.88,1,0,01-04-2022,15:44:19
146894,39,221.98,229.32,230.65,0,0,0,2.99,0.19,0.37,501.83,40.24,19.81,561.29,-336.44,-14.1,-13.1,-364.93,663.5,43.61,85.8,793.14,0.83,0.95,0.83,49.88,1,0,01-04-2022,15:44:21
146895,39,221.92,229.52,230.74,0,0,0,2.99,0.18,0.4,502.71,38.68,23.52,565.6,-335.67,-13.29,-13.6,-363.87,663.55,42.23,93.22,800.33,0.83,0.95,0.87,49.88,1,0,01-04-2022,15:44:22
146896,39,221.9,229.6,230.55,0,0,0,2.99,0.2,0.36,501.56,42.37,18.46,561.25,-336.4,-15,-14.75,-362.07,663.94,45.92,82.57,789.01,0.83,0.94,0.78,49.89,1,0,01-04-2022,15:44:23
146897,39,221.83,229.37,230.51,0,0,0,2.99,0.19,0.36,501.68,40.71,19.08,561.48,-336.04,-15.75,-13.5,-365.29,662.82,44.73,82.29,789.84,0.83,0.93,0.82,49.89,1,0,01-04-2022,15:44:25
146898,39,221.83,229.4,230.63,0,0,0,2.99,0.2,0.37,499.28,42.03,19.81,561.11,-340.21,-17.77,-14.06,-372.04,663.73,46.57,84.87,795.17,0.83,0.92,0.81,49.88,1,0,01-04-2022,15:44:26
146899,39,221.94,229.67,230.55,0,0,0,3,0.2,0.37,503.39,40.99,18.72,560.59,-337.1,-16.57,-12.51,-367.66,665.16,45.48,84.15,793.1,0.83,0.93,0.83,49.88,1,0,01-04-2022,15:44:27
146900,39,221.82,229.57,230.79,0,0,0,2.99,0.19,0.37,499.77,38.49,22.79,567.89,-338.1,-15.95,-12.56,-363.96,662.81,42.69,84.24,794.63,0.83,0.92,0.88,49.88,1,0,01-04-2022,15:44:29
146901,39,221.77,229.49,230.58,0,0,0,2.99,0.19,0.36,500.75,39.99,19.19,557.45,-335.85,-15.98,-13.31,-367.35,662.86,44.06,84.39,787.58,0.83,0.93,0.89,49.89,1,0,01-04-2022,15:44:30
146902,39,221.75,229.43,230.49,0,0,0,2.99,0.19,0.35,500.64,40.49,19.29,560.42,-336.71,-13.5,-12.3,-362.51,662.6,43.82,81.13,787.55,0.83,0.95,0.84,49.89,1,0,01-04-2022,15:44:31
146903,39,221.82,229.63,230.54,0,0,0,2.99,0.2,0.37,500.87,41.2,18.34,560.41,-336.63,-16.22,-14.92,-367.77,662.59,45.47,85.3,793.35,0.83,0.93,0.78,49.87,1,0,01-04-2022,15:44:33
146904,39,221.7,229.34,230.48,0,0,0,2.98,0.19,0.37,499.99,39.34,20,559.16,-334.43,-16.48,-14.46,-368.72,661.34,43.8,85.28,791.96,0.83,0.92,0.81,49.87,1,0,01-04-2022,15:44:34
146905,39,221.77,229.44,230.43,0,0,0,2.99,0.19,0.37,500.2,42.3,21.01,562.42,-335.16,-12.82,-14.55,-361.79,662.22,46.14,85.95,791.57,0.83,0.93,0.82,49.87,1,0,01-04-2022,15:44:35
146906,39,221.82,229.61,230.32,0,0,0,2.99,0.19,0.36,499.83,41.17,19.39,561.89,-337.62,-14.23,-13.94,-365.24,663.03,44.54,83.83,792.19,0.83,0.94,0.77,49.85,1,0,01-04-2022,15:44:37
146907,39,221.82,229.47,230.45,0,0,0,2.98,0.2,0.36,500.05,42.43,20.48,559.49,-335.04,-14.57,-15.15,-367.06,661.68,45.89,83.42,790.99,0.83,0.95,0.8,49.85,1,0,01-04-2022,15:44:38
146908,39,221.75,229.45,230.68,0,0,0,2.98,0.19,0.36,498.7,39.98,20.83,559.51,-336.83,-15.02,-14.83,-366.69,661.03,43.83,83.27,788.13,0.83,0.94,0.81,49.85,1,0,01-04-2022,15:44:39
146909,39,221.7,229.53,230.42,0,0,0,2.98,0.18,0.36,501.19,37.56,19.58,555.99,-336.35,-15.89,-13.44,-365.68,662.55,41.78,82.95,785.38,0.83,0.92,0.82,49.86,1,0,01-04-2022,15:44:41
146910,39,221.72,229.48,230.49,0,0,0,2.99,0.19,0.37,500.17,40.45,21.26,562.89,-335.35,-16.05,-14,-365.61,662.28,44.75,84.13,791.42,0.83,0.93,0.83,49.86,1,0,01-04-2022,15:44:42
146911,39,221.74,229.33,230.18,0,0,0,2.99,0.19,0.37,500.49,40.26,19.99,559.99,-336.7,-14.89,-13.88,-364.36,662.35,44.06,84.48,790.33,0.83,0.94,0.82,49.86,1,0,01-04-2022,15:44:43
146912,39,221.58,229.48,230.41,0,0,0,2.98,0.19,0.38,498.69,40.33,21.74,562.49,-335.67,-15.12,-16.33,-367.91,660.75,44.06,82.9,793.73,0.83,0.94,0.82,49.86,1,0,01-04-2022,15:44:45
146913,39,222.84,229.06,230.31,0,0,0,0.13,0.19,0.48,14.24,40.43,27.41,82.08,-22.78,-15.11,-18.56,-56.45,28.52,44.21,111.01,183.74,0.53,0.94,0.83,49.86,1,0,01-04-2022,15:44:46
146914,39,222.79,229.12,230.14,0,0,0,0.13,0.18,0.36,14.5,37.59,21.92,74.01,-24.09,-16.58,-14.19,-54.86,29.63,41.93,83.31,154.87,0.52,0.91,0.84,49.83,1,0,01-04-2022,15:44:47
146915,39,222.58,228.78,230.16,0,0,0,0.13,0.2,0.41,14.16,41.59,22.81,80.28,-24.1,-15.61,-17.35,-56.69,29.59,45.53,95.29,171.09,0.51,0.94,0.8,49.83,1,0,01-04-2022,15:44:49
146916,39,222.5,228.71,230.08,0,0,0,0.13,0.19,0.37,15.1,40.22,18.64,73.02,-22.84,-14.12,-14.37,-52.6,29.15,45.35,85.59,159.1,0.55,0.93,0.79,49.83,1,0,01-04-2022,15:44:50
146917,39,221.26,229.04,230.28,0,0,0,2.98,0.19,0.37,498.36,40.91,21.17,77.4,-334.4,-14.79,-13.77,-53.19,659.15,44.43,84.05,158.55,0.83,0.94,0.84,49.83,1,0,01-04-2022,15:44:51
146918,39,221.48,229.11,230.26,0,0,0,2.98,0.19,0.37,499.3,40.36,19.82,559.22,-334.11,-13.74,-15.27,-363.6,660.02,43.76,84.5,788.09,0.83,0.95,0.79,49.83,1,0,01-04-2022,15:44:53
146919,39,221.35,228.93,230.46,0,0,0,2.98,0.19,0.36,496.78,39.88,19.17,555.83,-336.3,-15.64,-13.44,-365.38,658.73,43.95,83.66,786.34,0.83,0.93,0.82,49.82,1,0,01-04-2022,15:44:54
146920,39,221.44,229.15,230.48,0,0,0,2.98,0.2,0.36,499.2,42.02,18.39,559.6,-335.13,-13.48,-12.89,-361.5,660.34,45.14,82.05,787.54,0.83,0.95,0.82,49.82,1,0,01-04-2022,15:44:55
146921,39,221.33,228.96,230.4,0,0,0,2.98,0.19,0.39,500.12,40.91,22.06,561.01,-333.8,-13.89,-15.38,-363.66,660.29,44.19,90.55,793.85,0.83,0.95,0.82,49.84,1,0,01-04-2022,15:44:57
146922,39,221.45,228.95,230.29,0,0,0,2.98,0.19,0.37,498.48,39.23,18.49,557.84,-333.47,-13.1,-14.2,-361.1,659.71,43.52,84.29,786.93,0.83,0.94,0.79,49.84,1,0,01-04-2022,15:44:58
146923,39,221.48,229.01,230.4,0,0,0,2.97,0.19,0.36,498.05,40.42,19.46,557.99,-334.58,-13.39,-13.47,-361.26,658.91,43.74,82.95,786.17,0.83,0.95,0.75,49.84,1,0,01-04-2022,15:44:59
146924,39,221.27,229.07,230.35,0,0,0,2.98,0.19,0.37,497.36,41.52,20.17,557.43,-334.3,-13.64,-14.53,-364.74,658.49,44.67,84.77,787.93,0.83,0.95,0.81,49.84,1,0,01-04-2022,15:45:01
146925,39,221.44,229.01,230.4,0,0,0,2.98,0.19,0.36,499.42,40.84,19.46,559.72,-335.13,-14.9,-13.25,-363.28,659.88,44.66,82.71,787.25,0.83,0.94,0.83,49.84,1,0,01-04-2022,15:45:02
146926,39,221.36,229.04,230.5,0,0,0,2.98,0.19,0.36,498.99,40.17,20.98,559.8,-333.24,-16.42,-14.24,-364.48,659.1,44.43,83.21,787.07,0.83,0.93,0.83,49.88,1,0,01-04-2022,15:45:03
146927,39,221.38,228.96,230.47,0,0,0,2.98,0.2,0.37,499.45,41.6,21.53,562.13,-334.56,-14.91,-14.25,-362.4,660.39,45.33,84.35,788.79,0.83,0.93,0.83,49.88,1,0,01-04-2022,15:45:05
146928,39,221.33,228.88,230.34,0,0,0,2.99,0.19,0.38,500.94,39.53,19.89,559.67,-335.82,-15.34,-16.56,-366.36,661.1,43.49,87.53,792.09,0.83,0.93,0.77,49.88,1,0,01-04-2022,15:45:06
146929,39,221.43,228.93,230.35,0,0,0,2.98,0.19,0.37,499.98,40.49,20.36,563.02,-334.74,-14.62,-14.51,-365.66,660.53,43.95,84.07,790.05,0.83,0.94,0.82,49.9,1,0,01-04-2022,15:45:07
146930,39,221.31,228.79,230.25,0,0,0,2.98,0.19,0.36,499.48,39.41,19.67,558.56,-334.42,-16.75,-13.17,-364.34,659.07,43.93,82.89,785.88,0.83,0.92,0.83,49.9,1,0,01-04-2022,15:45:09
146931,39,221.16,228.99,230.39,0,0,0,2.97,0.19,0.36,495.98,40.46,20.22,556.65,-335.15,-16.07,-14.36,-365.58,657.96,44.65,83.86,786.47,0.83,0.93,0.81,49.86,1,0,01-04-2022,15:45:10
146932,39,221.35,229.06,230.54,0,0,0,2.98,0.19,0.36,499.61,39.97,21.56,560.39,-333.33,-15.27,-15.93,-364.08,659.62,44.21,83.45,786.6,0.83,0.93,0.8,49.86,1,0,01-04-2022,15:45:11
146933,39,221.55,229.04,230.47,0,0,0,2.98,0.19,0.37,500.48,41.94,22.88,563.33,-334.59,-15.06,-14.71,-361.84,661.33,45.59,85.73,789.79,0.83,0.94,0.84,49.86,1,0,01-04-2022,15:45:13
146934,39,221.51,228.99,230.48,0,0,0,2.98,0.19,0.37,499.01,40.27,21.03,563.46,-336.13,-15.22,-15.17,-364.82,660.55,43.97,118.9,792.43,0.83,0.93,0.83,49.89,1,0,01-04-2022,15:45:14
146935,39,221.45,228.99,230.34,0,0,0,2.98,0.19,0.43,499.67,39.79,23.84,563.29,-334.62,-15.1,-16.79,-366.51,660.38,43.74,98.35,802.47,0.83,0.93,0.82,49.89,1,0,01-04-2022,15:45:15
146936,39,221.39,228.92,230.49,0,0,0,2.98,0.19,0.38,499.47,39.89,21.13,560.49,-334.8,-15.34,-15.36,-365.49,659.53,43.72,86.43,789.68,0.83,0.93,0.81,49.86,1,0,01-04-2022,15:45:17
146937,39,221.58,229.02,230.48,0,0,0,2.98,0.19,0.38,499.59,39.75,21.53,562.4,-333.37,-16.68,-15.85,-367.14,659.85,44.43,87.58,793.56,0.83,0.92,0.8,49.86,1,0,01-04-2022,15:45:18
146938,39,221.52,228.98,230.31,0,0,0,2.98,0.19,0.4,500.18,38.89,22.48,560.95,-334.81,-15.4,-16.2,-364.97,661.01,43.29,92.59,795.26,0.83,0.94,0.81,49.86,1,0,01-04-2022,15:45:19
146939,39,222.65,231.23,231.07,0,0,0,2.99,0.2,0.38,503.22,41.49,21.64,566.75,-337.58,-16.59,-14.29,-368.86,665.73,46.01,87.11,799.43,0.83,0.93,0.83,49.88,1,0,01-04-2022,15:58:07
146940,39,222.65,231.23,231.07,0,0,0,2.99,0.2,0.38,503.22,41.49,21.64,566.75,-337.58,-16.59,-14.29,-368.86,665.73,46.01,87.11,799.43,0.83,0.93,0.83,49.88,1,0,01-04-2022,15:58:12
146941,39,222.65,231.23,231.07,0,0,0,2.99,0.2,0.38,503.22,41.49,21.64,566.75,-337.58,-16.59,-14.29,-368.86,665.73,46.01,87.11,799.43,0.83,0.93,0.83,49.88,1,0,01-04-2022,15:58:17
146942,39,220.76,230.25,230.54,0,0,0,2.99,0.2,0.38,501.26,41.12,19.4,560.22,-336.48,-15.67,-15.35,-363.21,663.1,45.13,87.83,791.06,0.83,0.93,0.78,49.87,1,0,01-04-2022,15:59:24
146943,39,223.52,230.55,230.63,0,0,0,0,0.21,0.47,0,44.12,29.78,73.91,0,-15.63,-22.83,-38.46,0,47.72,108.63,156.35,0,0.94,0.79,49.89,1,0,01-04-2022,16:04:24
146944,39,222.65,231.35,231.1,0,0,0,2.99,0.19,0.31,502.62,41.35,15.57,560.22,-337.69,-14.83,-10.47,-362.69,666.4,45.11,72.8,784.63,0.83,0.94,0.83,49.85,1,0,01-04-2022,16:09:24
146945,39,223.21,230.5,230.79,0,0,0,0,0.19,0.37,0,40.2,19.75,60.1,0,-16.01,-12.58,-29.89,0,44.49,85.87,133.35,0,0.93,0.84,49.84,1,0,01-04-2022,16:14:25
146946,39,223.67,231.68,231.44,0,0,0,2.81,0.18,0.39,491.48,38.49,22.36,552.47,-307.52,-15.99,-16.29,-338.79,627.85,42.63,91.19,761.87,0.85,0.93,0.81,49.84,1,0,01-04-2022,16:19:25
146947,39,224.5,231.35,231.35,0,0,0,0,0.18,0.3,0,36.43,15.52,51.95,0,-15.07,-8.03,-23.11,0,40.72,70.33,111.05,0,0.92,0.89,49.84,1,0,01-04-2022,16:24:26
146948,39,223.09,231.5,231.67,0,0,0,2.81,0.18,0.33,492.95,38.44,17.05,548.52,-305.61,-14.61,-14.47,-335.58,627.76,42.36,76.22,746.86,0.85,0.93,0.76,49.89,1,0,01-04-2022,16:29:26
146949,39,225.96,232.38,231.99,0,0,0,0.14,0.17,0.25,14.53,34.99,10.26,61.23,-25.42,-13.91,-9.29,-46.17,31.18,39.04,57.75,126.34,0.5,0.93,0.74,49.9,1,0,01-04-2022,16:34:27
146950,39,225.86,232.52,231.9,0,0,0,0.14,0.17,0.15,16.37,35.98,1.69,54.93,-25.19,-13.37,-5.74,-43.53,31.62,39.99,34.55,106.84,0.54,0.94,0.72,49.89,1,0,01-04-2022,16:39:27
146951,39,225.39,233.04,232.29,0,0,0,3.05,0.17,0.12,517.22,35.41,2.66,553.84,-349.1,-15.06,-3.7,-365.29,686.54,40.08,32.98,754.78,0.83,0.92,0.59,49.88,1,0,01-04-2022,16:44:28
146952,39,226.57,232.88,232.57,0,0,0,0.14,0.17,0.16,16.72,35.83,3.26,55.77,-25,-13.97,-4.5,-43.46,32.17,40.06,38.37,110.38,0.55,0.93,0.59,49.87,1,0,01-04-2022,16:49:28
146953,39,226.96,233.52,233.31,0,0,0,0.14,0.17,0.16,16.01,35.92,3.15,55.08,-26.09,-14.53,-5.36,-45.98,32,40.17,38.26,110.43,0.54,0.93,0.51,49.9,1,0,01-04-2022,16:54:29
146954,39,226.56,234.26,233.42,0,0,0,3.06,0.17,0.19,520.88,36.49,4.01,560.55,-353.18,-14.45,-6.52,-371.06,693.27,40.76,45.05,777.14,0.83,0.93,0.52,49.89,1,0,01-04-2022,17:11:10
146955,39,226.22,233.89,233.18,0,0,0,3.05,0.18,0.25,518,36.94,9.9,566.55,-351.72,-14.47,-7.71,-374.32,689.07,40.71,58.76,792.13,0.83,0.92,0.79,49.92,1,0,01-04-2022,17:13:51
146956,39,227.71,233.5,233.03,0,0,0,0.14,0.17,0.14,16.58,36.07,1.64,54.5,-25.77,-13.37,-3.97,-42.23,32.56,40.65,31.69,103.74,0.54,0.92,0.38,49.92,1,0,01-04-2022,17:18:51
146957,39,227.49,234.98,233.35,0,0,0,3.07,0.17,0.13,521.53,37.02,1.97,560.52,-355.6,-14.45,-4.1,-374.15,697.26,41.12,30.8,769.18,0.83,0.93,0.43,49.95,1,0,01-04-2022,17:23:52
147860,39,225.62,232.76,230.98,0,0,0,2.95,0.18,0.98,547.18,37.22,81.7,664.49,-300.99,-13.1,-56.42,-371.12,664.9,40.49,227.05,931.56,0.88,0.92,0.82,49.87,1,0,02-05-2022,16:26:24
147861,39,225.02,232.74,230.91,0,0,0,2.98,0.1,0.88,555.73,17.77,68.65,642.15,-300.1,-9.78,-50.89,-360.78,671.02,23.04,202.97,897.03,0.88,0.88,0.8,49.87,1,0,02-05-2022,16:32:41
147862,39,228.06,233.86,231.62,0,0,0,3,0.1,0.85,563.4,19.13,66.99,649.53,-310.32,-9.06,-50.99,-370.37,684.63,23.62,197.58,905.82,0.88,0.9,0.8,49.92,1,0,02-05-2022,16:37:41
147863,39,229.82,233.35,231.42,0,0,0,0.34,0.08,0.91,61.52,14.11,73.15,148.83,-48.36,-7.56,-54.22,-111.02,79.29,15.29,210.6,309.71,0.79,0.91,0.8,49.89,1,0,02-05-2022,16:48:44
147864,39,230.78,234.34,231.99,0,0,0,0,0.08,0.85,0,13.98,64.81,78.79,0,-7.57,-51.45,-59.02,0,18.51,197.43,215.94,0,0.88,0.78,49.88,1,0,02-05-2022,16:53:45
147865,39,230.16,234.67,232.25,0,0,0,0.3,0.08,0.79,50.19,13.1,62.06,122.59,-47.13,-9.04,-46.71,-100.92,69.74,18.54,185.17,271.12,0.73,0.82,0.79,49.89,1,0,02-05-2022,16:58:45
148008,39,220.41,225.8,229.35,0,0,0,0.32,0,0,53.51,0,0,53.48,-44.14,0,0,-44.67,70.53,0,0,70.76,0.77,0,0,49.88,1,0,02-07-2022,09:33:57
148010,39,219.96,225.58,230.16,0,0,0,0.32,0,0,53.59,0,0,53.59,-44.31,0,0,-44.45,70.83,0,0,70.83,0.77,0,0,49.9,1,0,02-07-2022,09:39:03
148012,39,220.73,226.03,230.1,0,0,0,0.32,0,0,53.34,0,0,53.34,-44.74,0,0,-44.74,70.63,0,0,70.63,0.77,0,0,49.88,1,0,02-07-2022,09:44:08
148014,39,219.77,225.23,228.2,0,0,0,0.31,0,0,51.74,0,0,51.74,-43.89,0,0,-43.89,69.01,0,0,69.01,0.76,0,0,49.81,1,0,02-07-2022,09:49:13
148016,39,219.88,225.18,228.07,0,0,0,0.32,0,0,53.57,0,0,53.57,-43.18,0,0,-43.18,69.92,0,0,69.92,0.78,0,0,49.92,1,0,02-07-2022,09:54:19
148018,39,220.1,225.37,228.37,0,0,0,0.32,0,0,52.61,0,0,52.84,-45.22,0,0,-45.22,69.8,0,0,70.65,0.76,0,0,49.89,1,0,02-07-2022,09:59:24
148020,39,219.79,225.24,227.63,0,0,0,0.32,0,0,52.74,0,0,52.93,-45.31,0,0,-44.07,70.11,0,0,69.89,0.76,0,0,49.83,1,0,02-07-2022,10:04:30
148022,39,218.32,224.09,226.89,0,0,0,0.32,0,0,51.41,0,0,51.29,-45.53,0,0,-43.4,69.86,0,0,68.1,0.75,0,0,49.78,1,0,02-07-2022,10:09:35
148024,39,218.74,224.4,227.44,0,0,0,0.32,0,0,52.87,0,0,51.8,-43.8,0,0,-44.43,69.56,0,0,69.31,0.77,0,0,49.85,1,0,02-07-2022,10:14:40
